%YAML 1.1
%TAG !u! tag:unity3d.com,2011:
--- !u!114 &11400000
MonoBehaviour:
  m_ObjectHideFlags: 0
  m_CorrespondingSourceObject: {fileID: 0}
  m_PrefabInstance: {fileID: 0}
  m_PrefabAsset: {fileID: 0}
  m_GameObject: {fileID: 0}
  m_Enabled: 1
  m_EditorHideFlags: 0
  m_Script: {fileID: 11500000, guid: bbb281ee3bf0b054c82ac2347e9e782c, type: 3}
  m_Name: Default Local Group
  m_EditorClassIdentifier: 
  m_GroupName: Default Local Group
  m_Data:
    m_SerializedData: []
  m_GUID: 68a21ac0e91277746ab7d0d9d483ea57
  m_SerializeEntries:
  - m_GUID: 34372b54b23bce743afeb79a5e067781
    m_Address: Assets/SO/CharactersData.asset
    m_ReadOnly: 0
    m_SerializedLabels: []
    FlaggedDuringContentUpdateRestriction: 0
  m_ReadOnly: 0
  m_Settings: {fileID: 11400000, guid: 80382f190b8cf4c4b9560020a95788e0, type: 2}
  m_SchemaSet:
    m_Schemas:
    - {fileID: 11400000, guid: 1be2d5b875c4f10408697a161c327979, type: 2}
    - {fileID: 11400000, guid: 5d623ecdb7840d344b5ce6607b1b96b7, type: 2}
